Exploring the BRFSS data
…
days_not_good %>% group_by(menthlth) %>% 
  summarise(count = n(), good_ration = n() / nrow(no_treatment), percentage = good_ration * 100) %>%
  mutate(cummulation = cumsum(percentage))

## # A tibble: 27 x 5
##    menthlth count  good_ration  percentage cummulation
##       <int> <int>        <dbl>       <dbl>       <dbl>
##  1        0  1358 0.4078078078 40.78078078    40.78078
##  2        1   120 0.0360360360  3.60360360    44.38438
##  3        2   250 0.0750750751  7.50750751    51.89189
##  4        3   180 0.0540540541  5.40540541    57.29730
##  5        4    80 0.0240240240  2.40240240    59.69970
##  6        5   197 0.0591591592  5.91591592    65.61562
##  7        6    29 0.0087087087  0.87087087    66.48649
##  8        7    99 0.0297297297  2.97297297    69.45946
##  9        8    16 0.0048048048  0.48048048    69.93994
## 10        9     3 0.0009009009  0.09009009    70.03003
## # ... with 17 more rows
…
